<?xml version="1.0" standalone="no"?>
<!DOCTYPE svg PUBLIC "-//W3C//DTD SVG 20010904//EN"
 "http://www.w3.org/TR/2001/REC-SVG-20010904/DTD/svg10.dtd">
<svg version="1.0" xmlns="http://www.w3.org/2000/svg"
 width="700.000000pt" height="700.000000pt" viewBox="0 0 700.000000 700.000000"
 preserveAspectRatio="xMidYMid meet">
<metadata>
Created by potrace 1.11, written by Peter Selinger 2001-2013
</metadata>
<g transform="translate(0.000000,700.000000) scale(0.100000,-0.100000)"
fill="#000000" stroke="none">
<path d="M4692 6404 c-206 -42 -389 -217 -442 -423 -81 -309 104 -628 413
-710 94 -26 245 -22 330 8 254 89 413 322 400 585 -11 244 -185 461 -426 531
-74 21 -195 25 -275 9z"/>
<path d="M2822 5529 c-18 -5 -164 -108 -325 -229 -160 -120 -303 -227 -316
-237 -28 -20 -131 -98 -146 -110 -5 -5 -29 -23 -52 -41 -100 -78 -113 -219
-30 -318 55 -65 165 -89 244 -54 23 10 133 88 244 173 458 346 513 387 523
387 32 -1 571 -170 569 -178 -1 -5 -50 -95 -109 -198 -58 -104 -119 -211 -134
-239 -15 -27 -65 -115 -110 -195 -45 -80 -136 -242 -203 -360 -66 -118 -132
-233 -146 -255 -14 -22 -30 -48 -36 -58 -43 -75 -621 -980 -629 -985 -6 -4
-276 -7 -601 -8 -415 0 -602 -4 -630 -12 -64 -19 -136 -80 -169 -145 -81 -158
-15 -335 149 -402 l58 -23 716 1 716 2 48 24 c26 13 60 36 75 51 31 31 38 39
188 210 60 69 114 130 119 136 6 6 35 39 65 74 30 34 64 72 75 84 11 12 58 66
105 119 46 53 88 97 92 97 7 0 355 -306 398 -350 8 -8 53 -49 100 -90 47 -41
94 -83 105 -93 11 -10 64 -57 118 -105 53 -48 97 -92 97 -99 0 -6 -9 -27 -19
-45 -121 -205 -586 -1056 -600 -1096 -25 -73 -19 -141 19 -218 85 -173 322
-212 458 -76 21 21 87 127 148 237 135 242 137 246 259 465 54 96 111 200 128
230 16 30 77 140 135 243 128 229 150 281 146 345 -5 107 -20 134 -153 284
-115 130 -178 201 -317 363 -71 83 -133 155 -139 161 -66 71 -251 289 -253
299 -2 7 11 37 29 66 17 30 43 74 57 99 133 238 433 769 464 823 l40 68 111
-219 c62 -120 146 -285 187 -366 83 -164 134 -230 195 -251 32 -11 141 -14
555 -14 483 0 518 1 555 19 43 20 105 81 105 103 0 7 4 17 10 23 15 15 18 85
4 131 -17 59 -48 99 -102 130 l-47 28 -428 1 c-235 1 -430 3 -432 5 -2 3 -65
159 -140 349 -75 190 -143 359 -150 375 -7 17 -25 62 -40 100 -46 121 -85 193
-118 218 -29 21 -81 53 -227 135 -25 14 -151 85 -280 159 -129 73 -250 137
-270 142 -19 5 -69 12 -110 16 -110 10 -129 13 -179 20 -122 17 -168 23 -246
30 -33 3 -89 11 -125 16 -36 6 -87 12 -115 15 -27 2 -59 6 -70 9 -52 10 -183
13 -213 4z"/>
</g>
</svg>
